{
  "archive": "73bde2ba79615907c4bc0b5697e00ffa641c12112d83e6f0d75dbf357734b09d",
  "aws": "554fac7d0d0b0dadb4650875ea4ce6c4041a6ae79d3248effc19e3277041e320",
  "random": "399acd3f3af75f31314bf814392a519c17ab49d541092813c07d135f738f4492",
  "template": "b8e087b2725bc6092e97ab076fbff66153a4df35fe185e7eb45a9a4ac206bbb6"
}